// Jest Snapshot v1, https://goo.gl/fbAQLP

exports[`<ApiErrorDialog /> renders info, open and onClose properties 1`] = `
<WithStyles(ForwardRef(Dialog))
  aria-describedby="error-dialog-description"
  aria-labelledby="error-dialog-title"
  disableBackdropClick={true}
  onClose={[MockFunction]}
  open={true}
  scroll="paper"
>
  <WithStyles(ForwardRef(DialogTitle))
    disableTypography={true}
    id="error-dialog-title"
    style={
      Object {
        "alignItems": "center",
        "backgroundColor": "lightseagreen",
        "color": "cyan",
        "display": "flex",
        "justifyContent": "space-between",
      }
    }
  >
    <WithStyles(ForwardRef(Typography))
      variant="h6"
    >
      Mock Error
    </WithStyles(ForwardRef(Typography))>
    <WithStyles(ForwardRef(IconButton))
      aria-label="close"
      onClick={[MockFunction]}
    >
      <CloseSharpIcon />
    </WithStyles(ForwardRef(IconButton))>
  </WithStyles(ForwardRef(DialogTitle))>
  <WithStyles(ForwardRef(DialogContent))>
    <WithStyles(ForwardRef(DialogContentText))
      component="div"
      id="error-dialog-description"
    >
      <WithStyles(ForwardRef(Typography))
        component="span"
        style={
          Object {
            "color": "midnightblue",
          }
        }
        variant="caption"
      >
        <ErrorSourceInfo
          info={
            Object {
              "error": [Function],
              "fromAction": "[course] ALL_COURSES_REQUEST",
              "request": Object {
                "method": "GET",
                "sourceComponent": "12345",
                "url": "http://localhost:3000/courses",
              },
            }
          }
          onClose={[MockFunction]}
          open={true}
        />
        <XMLHttpRequestInfo
          info={
            Object {
              "error": [Function],
              "fromAction": "[course] ALL_COURSES_REQUEST",
              "request": Object {
                "method": "GET",
                "sourceComponent": "12345",
                "url": "http://localhost:3000/courses",
              },
            }
          }
          onClose={[MockFunction]}
          open={true}
        />
        <ErrorStackTraceInfo
          info={
            Object {
              "error": [Function],
              "fromAction": "[course] ALL_COURSES_REQUEST",
              "request": Object {
                "method": "GET",
                "sourceComponent": "12345",
                "url": "http://localhost:3000/courses",
              },
            }
          }
          onClose={[MockFunction]}
          open={true}
        />
        <ErrorRequestInfo
          info={
            Object {
              "error": [Function],
              "fromAction": "[course] ALL_COURSES_REQUEST",
              "request": Object {
                "method": "GET",
                "sourceComponent": "12345",
                "url": "http://localhost:3000/courses",
              },
            }
          }
          onClose={[MockFunction]}
          open={true}
        />
      </WithStyles(ForwardRef(Typography))>
    </WithStyles(ForwardRef(DialogContentText))>
  </WithStyles(ForwardRef(DialogContent))>
</WithStyles(ForwardRef(Dialog))>
`;
